<?xml version="1.0" encoding="utf-8"?>
<!-- Generator: Adobe Illustrator 22.1.0, SVG Export Plug-In . SVG Version: 6.00 Build 0)  -->
<svg version="1.1" id="Слой_1" xmlns="http://www.w3.org/2000/svg" xmlns:xlink="http://www.w3.org/1999/xlink" x="0px" y="0px"
	 viewBox="0 0 15 15" style="enable-background:new 0 0 15 15;" xml:space="preserve">
<style type="text/css">
	.st0{fill:none;stroke:#EF1F23;stroke-width:1.5;stroke-linecap:round;stroke-miterlimit:10;}
</style>
<line class="st0" x1="1.1" y1="1.1" x2="13.9" y2="13.9"/>
<line class="st0" x1="13.9" y1="1.1" x2="1.1" y2="13.9"/>
</svg>
