<?xml version="1.0" encoding="utf-8"?>
<!-- Generator: Adobe Illustrator 21.1.0, SVG Export Plug-In . SVG Version: 6.00 Build 0)  -->
<svg version="1.1" id="Слой_1" xmlns="http://www.w3.org/2000/svg" xmlns:xlink="http://www.w3.org/1999/xlink" x="0px" y="0px"
	 viewBox="0 0 104.8 133" style="enable-background:new 0 0 104.8 133;" xml:space="preserve">
<style type="text/css">
	.st0{fill:none;stroke:#BABABA;stroke-width:10;stroke-linecap:round;stroke-linejoin:round;stroke-miterlimit:10;}
</style>
<g>
	<path class="st0" d="M14.1,5C9.1,5,5,9.1,5,14.1v17.3v87.5c0,5,4.1,9.1,9.1,9.1h76.7c5,0,9.1-4.1,9.1-9.1V31.4V14.1
		c0-5-4.1-9.1-9.1-9.1H14.1z"/>
	<line class="st0" x1="80.3" y1="36.8" x2="24.5" y2="36.8"/>
	<line class="st0" x1="80.3" y1="66.5" x2="24.5" y2="66.5"/>
	<line class="st0" x1="58.8" y1="96.3" x2="24.5" y2="96.3"/>
</g>
</svg>
